<?xml version="1.0" standalone="no"?>
<!DOCTYPE svg PUBLIC "-//W3C//DTD SVG 1.1//EN" "http://www.w3.org/Graphics/SVG/1.1/DTD/svg11.dtd" >
<svg xmlns="http://www.w3.org/2000/svg">
<metadata>Generated by IcoMoon</metadata>
<defs>
<font id="chess-notepad" horiz-adv-x="1024">
<font-face units-per-em="1024" ascent="960" descent="-64" />
<missing-glyph horiz-adv-x="1024" />
<glyph unicode="&#x20;" horiz-adv-x="512" d="" />
<glyph unicode="&#x2654;" glyph-name="king-white" horiz-adv-x="1015" d="M541.641 827.349v132.651h-67.878v-132.651h-132.651v-67.878h132.651v-132.651h67.878v132.651h132.651v67.878h-132.651zM1014.212 487.319c-3.834 38.027-16.892 74.54-38.016 106.379s-49.704 58.056-83.245 76.374c-33.541 18.317-71.037 28.183-109.252 28.746s-75.987-8.197-110.047-25.52c-34.060-17.323-63.392-42.689-85.455-73.899-75.401-106.7-44.788-258.287-11.589-374.322-45.716-4.231-91.984-4.22-137.866-0.166 33.298 116.3 64.044 267.49-11.545 374.444-22.051 31.21-51.383 56.576-85.455 73.899-34.060 17.323-71.844 26.084-110.047 25.52-38.214-0.563-75.711-10.429-109.252-28.746s-62.111-44.534-83.234-76.374c-21.123-31.84-34.171-68.364-38.016-106.379-3.845-38.027 1.646-76.407 15.986-111.837 51.77-127.956 207.677-182.377 331.943-206.473-29.862-81.754-69.17-157.995-113.052-232.976l543.265 0.033c-43.76 74.816-83.544 152.084-113.284 233.617v0c122.951 24.758 280.891 79.058 332.186 205.832 14.34 35.43 19.82 73.81 15.975 111.837zM80.097 400.914c-10.197 25.2-14.097 52.51-11.368 79.555s12.009 53.018 27.045 75.678c15.025 22.648 35.353 41.297 59.216 54.333 23.863 13.025 50.533 20.052 77.721 20.45 27.178 0.398 54.046-5.833 78.285-18.152 24.228-12.318 45.097-30.359 60.785-52.566 15.644-22.14 25.675-47.738 29.221-74.606 9.324-80.98-6.109-170.125-30.304-251.592v0c-100.447 18.141-248.035 61.746-290.591 166.91zM351.696 3.889c25.079 50.212 47.207 101.971 65.889 154.901 59.581-6.341 120.222-6.441 180.168 0.232 18.693-53.018 40.844-104.833 65.967-155.111l-312.012-0.022zM935.308 400.947c-42.634-105.374-190.564-147.367-290.767-166.336-23.985 80.947-39.474 169.938-30.138 251.017 3.557 26.868 13.578 52.466 29.221 74.606 15.688 22.206 36.557 40.247 60.785 52.566 24.239 12.329 51.107 18.56 78.285 18.152 27.189-0.398 53.858-7.413 77.721-20.45s44.18-31.685 59.216-54.333c15.025-22.648 24.316-48.632 27.045-75.678s-1.171-54.355-11.368-79.555z" />
<glyph unicode="&#x2655;" glyph-name="queen-white" horiz-adv-x="1094" d="M974.909-63.047l118.676 794.273-288.827-388.2-258.562 616.974-258.085-616.735-288.112 387.009 118.438-792.367-0.953-1.906 857.424 0.715s0 0 0 0zM112.719 459.081l143.222-192.313-84.36-201.368-58.862 393.681zM224.961 7.492l80.547 192.551 143.222-192.551h-224.007zM555.014 7.492h-17.158l-200.415 269.047 208.756 498.297 208.756-498.536-199.939-268.809zM644.617 8.207l142.269 191.36 80.071-191.36h-222.578zM836.692 266.054l143.937 193.504-59.1-396.064-84.837 202.56z" />
<glyph unicode="&#x2656;" glyph-name="rook-white" d="M511.556 879.519l156.023-120.329 169.849 113.585v-378.857h-142.244c5.014-95.468 32.070-202.846 59.89-290.703 15.303-48.325 30.614-90.063 42.088-119.695 5.734-14.807 10.502-26.569 13.822-34.593 1.659-4.010 2.955-7.086 3.828-9.138 0.436-1.026 0.766-1.798 0.983-2.302l0.24-0.553 0.055-0.125 0.008-0.023 18.741-42.994h-645.236l18.501 43.479c0.219 0.518 0.551 1.311 0.989 2.363 0.877 2.107 2.175 5.259 3.838 9.366 3.326 8.21 8.102 20.228 13.842 35.318 11.489 30.2 26.814 72.616 42.129 121.405 27.773 88.476 54.725 195.496 59.865 288.195h-142.196v384.297l171.53-115.312 153.455 116.615zM390.277 493.699c-5.169-101.679-34.38-215.982-62.755-306.377-15.759-50.205-31.508-93.796-43.325-124.852-0.948-2.494-1.872-4.907-2.769-7.238h460.814c-0.772 1.974-1.565 4.008-2.374 6.099-11.831 30.548-27.595 73.523-43.368 123.335-28.498 89.997-57.772 204.589-62.82 309.033h-243.403zM511.279 802.142l-150.989-114.743-112.28 75.48v-207.521h527.976v202.418l-110.963-74.207-153.745 118.572z" />
<glyph unicode="&#x2657;" glyph-name="bishop-white" d="M498.536 810.829c-8.806 4.218-18.506 6.12-28.207 5.547s-19.124-3.605-27.398-8.84c-8.276-5.236-15.147-12.515-19.952-21.19-4.807-8.677-7.381-18.457-7.469-28.436-0.086-9.979 2.316-19.806 6.971-28.569l14.41-27.13-54.264-28.819-14.408 27.132c-9.464 17.82-14.324 37.738-14.146 57.924 0.176 20.185 5.382 40.016 15.157 57.666 9.775 17.652 23.816 32.566 40.849 43.344 17.037 10.778 36.512 17.063 56.625 18.251s40.19-2.761 58.37-11.468c18.176-8.705 33.855-21.878 45.611-38.272s19.218-35.486 21.723-55.516c2.687-21.481-2.505-46.469-9.226-63.69l-0.121-0.305-0.125-0.303c-23.425-56.424-62.978-109.070-106.232-159.853-19.225-22.571-39.604-45.251-59.982-67.926-2.654-2.953-5.308-5.906-7.959-8.86-23.134-25.766-46.195-51.644-68.268-78.252-82.854-99.869-148.099-205.734-144.172-337.527h630.195c-4.413 66.591-19.673 128.606-52.249 194.095-34.986 70.334-90.499 145.785-176.151 235.637-48.288-50.897-96.074-101.839-136.608-151.196-47.086-57.34-81.93-109.689-96.889-154.618l-9.703-29.147-58.294 19.407 9.703 29.147c18.694 56.152 59.681 115.726 107.702 174.203 46.186 56.24 101.153 114.108 153.983 169.73 2.542 2.677 5.079 5.347 7.61 8.012l21.893 23.058 22.29-22.675c100.758-102.496 167.584-189.981 209.474-274.194 42.185-84.808 58.421-164.962 59.961-251.632l0.557-31.267h-749.993l-2.796 27.628c-17.221 170.177 64.811 300.415 156.198 410.569 22.915 27.621 46.686 54.286 69.837 80.069 2.671 2.976 5.331 5.935 7.981 8.884 20.447 22.753 40.247 44.788 58.905 66.693 42.254 49.613 76.509 96.166 96.125 143.247 4.162 10.809 6.433 25.068 5.386 33.441-1.239 9.898-4.923 19.298-10.686 27.336-5.763 8.036-13.412 14.445-22.223 18.664z" />
<glyph unicode="&#x2658;" glyph-name="knight-white" d="M500.58 878.749l31.547-176.52-422.941-306.483 84.893-159.205 17.457-0.811c153.676-7.15 337.91 8.776 470.823 105.759l24.818 18.106-36.215 49.633-24.818-18.108c-110.77-80.824-268.562-99.617-414.358-94.716l-43.195 81.009 410.798 297.683-15.464 86.539c131.412-82.558 203.391-175.896 236.767-282.867 36.655-117.481 28.246-255.859-7.791-422.967h-452.174l89.108 103.809-46.619 40.018-176.202-205.267h635.064l5.435 23.91c41.11 180.845 55.163 339.9 11.827 478.796-43.846 140.53-144.79 255.537-322.748 351.482l-56.015 30.2z" />
<glyph unicode="&#x265a;" glyph-name="king-black" horiz-adv-x="1004" d="M532.078 910.806v-117.719h117.72v-60.234h-117.72v-117.72h-60.235v117.72h-117.72v60.234h117.72v117.719h60.235zM692.463 668.511c31.234 8.397 64.054 9.224 95.638 2.391 31.587-6.835 61.042-21.139 85.783-41.755 24.747-20.621 44.024-46.933 56.093-76.694 12.071-29.764 16.539-62.018 13.015-93.945-3.522-31.925-14.916-62.49-33.119-89.070-18.087-26.411-40.362-47.953-85.647-70.61l-1.689-0.845-1.761-0.683c-79.912-30.987-160.766-43.126-248.541-43.126h-40.157v40.157c0 8.188-0.044 16.563-0.090 25.086-0.375 70.724-0.807 151.821 23.672 223.624l0.11 0.323 0.116 0.323c10.86 30.158 28.985 57.23 52.738 78.932 23.819 21.765 52.599 37.494 83.837 45.891zM312.438 669.509c31.216-8.471 59.956-24.273 83.721-46.094 23.697-21.759 41.753-48.875 52.535-79.061l0.116-0.321 0.108-0.325c23.98-70.925 23.476-149.924 23.022-221.080-0.060-9.535-0.12-18.93-0.12-28.144v-40.157h-40.157c-106.789 0-164.478 11.447-248.488 44.297l-1.751 0.685-1.679 0.845c-45.229 22.765-67.451 44.361-85.47 70.817-18.134 26.624-29.452 57.22-32.892 89.15-3.441 31.935 1.11 64.177 13.255 93.911 12.144 29.73 31.488 55.995 56.285 76.553 24.792 20.556 54.281 34.788 85.885 41.544 31.599 6.756 64.416 5.851 95.63-2.62zM354.991 194.825h280.66c0 0 23.197-52.212 42.799-91.287 19.603-39.073 58.149-100.055 58.149-100.055h-481.445c0 0 40.675 60.982 60.277 100.055 19.603 39.075 39.559 91.287 39.559 91.287z" />
<glyph unicode="&#x265b;" glyph-name="queen-black" horiz-adv-x="1004" d="M887.467 3.811l93.182 600.869-200.22-308.939 107.038-291.93zM742.079 237.022l84.48-230.962h-234.261l149.781 230.962zM717.842 304.357l-194.737-299.169h-22.821l-195.066 299.673 206.22 563.097 206.404-563.601zM42.375 604.566l200.484-307.915-108.394-292.784-92.089 600.698zM194.969 4.989l237.099 0.199-151.080 232.346-86.019-232.544z" />
<glyph unicode="&#x265c;" glyph-name="rook-black" horiz-adv-x="1004" d="M501.525 871.057l152.964-117.969 166.518 111.358v-351.351h-638.094v356.684l168.167-113.051 150.446 114.329zM337.488 452.253h326.13c0 0 3.502-68.716 17.39-159.955 19.683-129.293 109.616-288.652 109.616-288.652h-577.327c0 0 89.116 153.927 108.217 283.13 13.489 91.242 15.974 165.476 15.974 165.476z" />
<glyph unicode="&#x265d;" glyph-name="bishop-black" horiz-adv-x="1004" d="M581.57 748.61c0-17.8-3.835-34.692-10.714-49.881-8.648-20.657-23.148-45.407-37.001-65.11-45.592-59.023-89.887-108.978-130.972-155.311-8.208-9.256-16.288-18.368-24.225-27.379-59.123-67.128-111.381-129.783-144.627-203.14l-12.433-27.433 54.864-24.863 12.433 27.431c29.1 64.209 75.619 120.812 134.965 188.193 7.77 8.82 15.741 17.808 23.889 26.995 37.946 42.783 79.774 89.943 123.075 144.97l35.72-31.545 0.753-0.767c98.782-100.581 164.324-186.452 205.416-269.139 41.392-83.287 57.328-162.025 58.842-247.153l0.55-30.995h-735.265l-2.765 27.351c-14.143 139.89 39.922 252.287 110.359 348.505 35.101 47.947 74.824 92.626 112.698 134.837l6.16 6.863c4.353 4.849 8.648 9.618 12.884 14.324l0.018 0.018c29.327 32.571 55.898 62.081 79.81 93.475-62.317 3.616-111.749 55.848-111.749 119.754 0 66.248 53.124 119.953 118.655 119.953s118.658-53.705 118.658-119.953z" />
<glyph unicode="&#x265e;" glyph-name="knight-black" horiz-adv-x="1004" d="M490.771 879.175l30.957-172.615-415.070-299.739 83.369-155.809 17.090-0.791c78.23-3.626 187.683 9.543 283.393 31.369 48.022 10.951 93.586 24.303 130.771 39.308 6.895 2.783 13.71 5.7 20.347 8.762-4.453-14.294-9.802-26.606-15.848-37.344-13.83-24.564-32.21-42.476-55.145-57.29-19.765-12.766-47.347-18.042-72.786-19.39-12.262-0.651-23.092-0.343-30.82 0.126-3.847 0.233-6.879 0.504-8.883 0.707-1.002 0.102-1.743 0.187-2.195 0.241l-0.522 0.064-13.489 1.831-234.384-204.427h637.904l5.343 23.419c40.344 176.861 54.143 332.447 11.603 468.319-43.042 137.471-142.119 249.942-316.735 343.76l-54.9 29.497z" />
<glyph unicode="&#x265f;" glyph-name="pawn-white" d="M512 784.709c-73.521 0-133.12-59.6-133.12-133.119 0-73.521 59.599-133.12 133.12-133.12 73.519 0 133.12 59.599 133.12 133.12 0 73.519-59.601 133.119-133.12 133.119zM317.44 651.59c0 107.452 87.108 194.559 194.56 194.559s194.56-87.108 194.56-194.559c0-107.452-87.108-194.56-194.56-194.56s-194.56 87.108-194.56 194.56zM399.079 340.638h-84.148v61.44h394.138v-61.44h-84.148c3.045-20.527 8.872-43.497 16.802-67.854 11.895-36.518 27.898-74.297 44.138-108.691 16.21-34.329 32.449-64.858 44.646-86.815 6.091-10.965 11.153-19.759 14.678-25.784 1.761-3.011 3.135-5.327 4.059-6.873l1.040-1.731 0.252-0.416 0.055-0.092 28.459-46.715h-534.102l29.805 48.953c0.926 1.546 2.3 3.863 4.061 6.873 3.523 6.025 8.587 14.819 14.678 25.784 12.198 21.957 28.436 52.486 44.646 86.815 16.241 34.394 32.244 72.174 44.136 108.691 7.932 24.357 13.758 47.327 16.804 67.854zM460.929 339.571c-3.412-27.83-10.914-57.197-20.232-85.811-12.964-39.805-30.099-80.108-47-115.9-14.658-31.042-29.29-59.013-41.171-80.753h318.945c-11.878 21.74-26.511 49.711-41.169 80.753-16.9 35.793-34.036 76.095-47 115.9-9.318 28.615-16.82 57.981-20.232 85.811h-102.142z" />
<glyph unicode="&#xe905;" glyph-name="pawn-black" horiz-adv-x="1004" d="M311.216 649.184c0 105.346 85.4 190.746 190.745 190.746s190.745-85.4 190.745-190.746c0-105.346-85.4-190.745-190.745-190.745s-190.745 85.4-190.745 190.745zM695.192 403.522h-386.462v-60.31h89.596c-6.688-52.051-29.973-117.405-55.085-175.518-14.557-33.686-29.138-63.639-40.089-85.177-5.467-10.756-10.015-19.384-13.177-25.293-1.582-2.954-2.817-5.226-3.646-6.744l-1.221-2.216-24.968-44.781h483.641l-26.187 46.998c-0.831 1.518-2.066 3.791-3.646 6.744-3.164 5.909-7.712 14.537-13.179 25.293-10.949 21.538-25.532 51.491-40.089 85.177-25.112 58.113-48.397 123.466-55.085 175.518h89.596v60.31z" />
</font></defs></svg>