<svg width="50" height="51" viewBox="0 0 50 51" fill="none" xmlns="http://www.w3.org/2000/svg">
<path fill-rule="evenodd" clip-rule="evenodd" d="M15.5 15.4801C15.5 10.2334 19.7533 5.98007 25 5.98007C30.2467 5.98007 34.5 10.2334 34.5 15.4801C34.5 20.7268 30.2467 24.9801 25 24.9801C19.7533 24.9801 15.5 20.7268 15.5 15.4801Z" fill="black"/>
<path d="M34.6238 27.7152H15.3762V30.7189H19.8385C19.5054 33.3113 18.3457 36.5662 17.095 39.4605C16.37 41.1382 15.6438 42.63 15.0984 43.7027C14.8261 44.2384 14.5996 44.6681 14.4421 44.9624C14.3633 45.1095 14.3018 45.2227 14.2605 45.2983L14.2139 45.383L14.2027 45.4033L14.1997 45.4087L12.9562 47.639H37.0438L35.7998 45.4078L35.7973 45.4033L35.7861 45.383L35.7396 45.2983C35.6982 45.2227 35.6367 45.1095 35.558 44.9624C35.4004 44.6681 35.1739 44.2384 34.9016 43.7027C34.3563 42.63 33.63 41.1382 32.905 39.4605C31.6543 36.5662 30.4946 33.3113 30.1615 30.7189H34.6238V27.7152Z" fill="black"/>
</svg>
